topic,papers_total,papers_with_coi_statement,papers_with_conflict,coi_statement_rate,conflict_rate
inflammation,15700,5885,577,0.37484076433121016,0.09804587935429057
cancer,14573,7002,712,0.48047759555342073,0.10168523279063124
breast cancer,14392,6696,594,0.4652584769316287,0.08870967741935484
apoptosis,14143,5548,275,0.39227886587004174,0.04956741167988464
epidemiology,13748,5362,726,0.390020366598778,0.13539723983588214
obesity,12096,5525,577,0.45676256613756616,0.10443438914027149
prognosis,10668,5685,524,0.5329021372328459,0.09217238346525945
children,10215,4165,361,0.4077337249143417,0.08667466986794718
oxidative stress,9443,3901,248,0.4131102403897067,0.0635734427069982
depression,9076,3752,430,0.4133979726751873,0.11460554371002132
meta analysis,9033,4807,388,0.5321598582973541,0.08071562304971916
risk factors,7887,3806,327,0.4825662482566248,0.08591697320021019
aging,7836,2805,269,0.35796324655436446,0.09590017825311943
alzheimer s disease,7690,2713,407,0.3527958387516255,0.15001842978252858
quality of life,7689,3682,453,0.4788659123423072,0.12303096143400326
hiv,7350,2581,299,0.351156462585034,0.11584657109647424
mortality,7349,3308,418,0.4501292692883386,0.12636033857315598
diabetes,7241,3064,406,0.4231459743129402,0.1325065274151436
gene expression,6941,2482,169,0.3575853623397205,0.06809024979854955
colorectal cancer,6891,3387,316,0.49151066608619937,0.09329790374963094
pregnancy,6832,2991,337,0.4377927400468384,0.11267134737545971
public health,6412,2973,402,0.4636618839675608,0.13521695257315844
diagnosis,6398,2678,317,0.4185683025945608,0.11837191934279313
physical activity,6348,3196,260,0.5034656584751103,0.08135168961201501
biomarker,6129,2752,365,0.4490128895415239,0.13263081395348839
stroke,6005,2471,298,0.41149042464612823,0.12059894779441521
prostate cancer,5965,2730,306,0.45766974015088013,0.11208791208791209
treatment,5874,2171,398,0.3695948246510044,0.1833256563795486
hypertension,5821,2367,232,0.40663116303040714,0.09801436417406
metastasis,5813,3001,206,0.5162566660932393,0.06864378540486504
prevalence,5797,2604,258,0.44919786096256686,0.09907834101382489
biomarkers,5792,2711,446,0.4680593922651934,0.16451493913684986
autophagy,5695,2584,135,0.4537313432835821,0.05224458204334365
chemotherapy,5239,2250,285,0.42947127314372974,0.12666666666666668
hepatocellular carcinoma,5118,2908,250,0.5681906994919891,0.0859697386519945
heart failure,5065,1804,272,0.35616979269496546,0.15077605321507762
survival,5058,2425,293,0.4794385132463424,0.12082474226804124
malaria,5024,1295,99,0.2577627388535032,0.07644787644787644
magnetic resonance imaging,4983,2167,295,0.434878587196468,0.13613290263036457
exercise,4783,2069,196,0.432573698515576,0.09473175447075882
mitochondria,4751,1856,132,0.3906545990317828,0.07112068965517242
tuberculosis,4606,1858,140,0.40338688666956146,0.07534983853606028
type 2 diabetes,4603,2021,448,0.4390614816424071,0.22167243938644235
parkinson s disease,4588,1617,175,0.3524411508282476,0.10822510822510822
diabetes mellitus,4581,2067,204,0.45121152586771446,0.09869375907111756
lung cancer,4551,2194,199,0.48209184794550647,0.09070191431175935
human,4530,2827,137,0.6240618101545253,0.048461266360099044
immunotherapy,4516,2179,464,0.4825066430469442,0.21294171638366224
anxiety,4472,1764,210,0.3944543828264758,0.11904761904761904
mental health,4472,2295,273,0.5131932021466905,0.11895424836601307
crystal structure,4365,287,13,0.06575028636884307,0.04529616724738676
cardiovascular disease,4334,1564,227,0.360867558837102,0.14514066496163683
surgery,4332,1957,247,0.4517543859649123,0.1262135922330097
microrna,4322,1751,102,0.40513651087459507,0.05825242718446602
primary care,4298,2007,281,0.4669613773848302,0.14000996512207275
gastric cancer,4275,2238,142,0.5235087719298246,0.06344950848972297
bacteria,4238,754,55,0.17791411042944785,0.07294429708222812
evolution,4235,1361,59,0.3213695395513577,0.04335047759000735
epigenetics,4208,1612,140,0.3830798479087453,0.08684863523573201
angiogenesis,4205,1694,129,0.4028537455410226,0.07615112160566706
prevention,4190,1689,238,0.40310262529832935,0.1409117821195974
dna methylation,4164,1757,162,0.42195004803073966,0.09220261809903244
mouse,4113,2846,93,0.6919523462193047,0.03267744202389318
proliferation,4110,1868,71,0.4545012165450122,0.03800856531049251
cytokines,4092,1392,131,0.34017595307917886,0.09410919540229885
asthma,4086,1661,254,0.4065100342633382,0.15291992775436483
metabolism,4084,1538,136,0.37659157688540645,0.08842652795838751
schizophrenia,4067,1143,138,0.2810425374969265,0.12073490813648294
iran,4004,1640,195,0.4095904095904096,0.11890243902439024
adolescents,3987,1819,175,0.4562327564584901,0.09620670698185817
stress,3919,1322,111,0.3373309517734116,0.08396369137670197
dementia,3836,1728,267,0.4504692387904067,0.1545138888888889
machine learning,3809,2148,231,0.563927540036755,0.10754189944134078
atherosclerosis,3774,1252,123,0.3317435082140964,0.09824281150159744
infection,3768,1489,158,0.39516985138004246,0.1061114842175957
china,3767,1429,81,0.3793469604459782,0.05668299510146956
proteomics,3748,1451,118,0.3871398078975454,0.08132322536181943
elderly,3720,1709,169,0.45940860215053764,0.09888823873610299
transcriptome,3712,1407,77,0.37904094827586204,0.05472636815920398
next generation sequencing,3688,1495,190,0.40536876355748375,0.12709030100334448
pain,3680,1575,212,0.4279891304347826,0.1346031746031746
cognition,3654,1141,161,0.31226053639846746,0.1411042944785276
genetics,3586,1348,150,0.3759063022866704,0.11127596439169139
immunohistochemistry,3535,1333,121,0.3770862800565771,0.09077269317329333
covid 19,3510,1827,248,0.5205128205128206,0.13574165298303228
radiotherapy,3500,1555,205,0.4442857142857143,0.13183279742765272
metabolic syndrome,3499,1602,126,0.4578450985995999,0.07865168539325842
development,3478,1000,71,0.2875215641173088,0.071
rheumatoid arthritis,3430,1436,265,0.4186588921282799,0.18454038997214484
rna seq,3396,1317,78,0.3878091872791519,0.05922551252847381
screening,3395,1484,174,0.43711340206185567,0.11725067385444744
reactive oxygen species,3352,1261,74,0.3761933174224344,0.05868358445678033
hippocampus,3317,782,48,0.2357552004823636,0.061381074168797956
education,3312,1521,161,0.4592391304347826,0.10585141354372124
migration,3287,1394,60,0.42409491937937327,0.043041606886657105
nutrition,3266,1646,173,0.5039804041641152,0.10510328068043742
multiple sclerosis,3262,1204,242,0.36909871244635195,0.2009966777408638
atrial fibrillation,3257,1140,193,0.3500153515505066,0.1692982456140351
melanoma,3249,1606,210,0.4943059402893198,0.1307596513075965
influenza,3234,698,96,0.21583178726035868,0.13753581661891118
ovarian cancer,3211,1571,149,0.4892556835876674,0.09484404837683004
diet,3209,1502,172,0.4680585852290433,0.11451398135818908
polymorphism,3201,1357,64,0.4239300218681662,0.04716285924834193
mri,3172,1089,169,0.34331651954602777,0.155188246097337
myocardial infarction,3124,1033,110,0.3306658130601793,0.10648596321393998
metabolomics,3115,1609,125,0.5165329052969503,0.07768800497203232
viruses,3104,194,7,0.0625,0.03608247422680412
sepsis,3093,1449,190,0.4684772065955383,0.13112491373360938
child,3078,1403,189,0.4558154645873944,0.1347113328581611
hypoxia,3064,1173,98,0.38283289817232374,0.08354646206308611
insulin resistance,3048,1275,116,0.4183070866141732,0.09098039215686274
antioxidant,2989,1439,86,0.4814319170291067,0.059763724808895066
fmri,2964,389,57,0.13124156545209176,0.14652956298200515
cytotoxicity,2962,1383,46,0.4669142471303174,0.033261026753434564
rehabilitation,2918,1283,130,0.4396847155586018,0.10132501948558068
taxonomy,2915,386,26,0.13241852487135505,0.06735751295336788
safety,2909,1222,284,0.42007562736335513,0.23240589198036007
pancreatic cancer,2877,1543,164,0.5363225582203685,0.10628645495787427
smoking,2854,1161,158,0.40679747722494747,0.13608957795004306
chronic kidney disease,2851,1379,170,0.48368993335671695,0.12327773749093546
vaccine,2813,766,128,0.27230714539637396,0.1671018276762402
randomized controlled trial,2810,1450,218,0.5160142348754448,0.1503448275862069
climate change,2806,891,70,0.31753385602280826,0.07856341189674523
mass spectrometry,2787,1150,86,0.41263006817366343,0.07478260869565218
non small cell lung cancer,2778,1425,173,0.5129589632829373,0.12140350877192982
neurodegeneration,2758,978,115,0.3546047860768673,0.11758691206543967
microbiome,2752,1258,171,0.4571220930232558,0.1359300476947536
cell cycle,2714,1065,52,0.39240972733971996,0.048826291079812206
osteoporosis,2707,1253,103,0.462874030291836,0.08220271348762968
india,2700,1276,96,0.4725925925925926,0.07523510971786834
drug resistance,2695,1087,97,0.4033395176252319,0.08923643054277829
adolescent,2687,1307,162,0.4864160774097506,0.12394797245600613
copd,2686,1310,340,0.48771407297096053,0.2595419847328244
innate immunity,2668,786,62,0.2946026986506747,0.07888040712468193
cervical cancer,2665,1226,90,0.4600375234521576,0.0734094616639478
pharmacokinetics,2645,1017,263,0.38449905482041585,0.2586037364798427
resistance,2625,993,97,0.3782857142857143,0.09768378650553877
epilepsy,2593,908,158,0.3501735441573467,0.17400881057268722
gender,2590,1018,88,0.39305019305019306,0.08644400785854617
surveillance,2577,949,95,0.3682576639503298,0.10010537407797682
coronary artery disease,2575,941,99,0.3654368932038835,0.10520722635494155
vitamin d,2571,1184,96,0.4605211979774407,0.08108108108108109
osteoarthritis,2570,1317,183,0.5124513618677042,0.13895216400911162
decision making,2551,861,103,0.33751470011760093,0.11962833914053426
blood pressure,2537,911,114,0.35908553409538824,0.1251372118551043
rat,2528,977,42,0.3864715189873418,0.042988741044012284
invasion,2512,1090,31,0.4339171974522293,0.028440366972477066
genomics,2510,917,112,0.36533864541832667,0.12213740458015267
stem cells,2500,984,82,0.3936,0.08333333333333333
body mass index,2499,1180,113,0.4721888755502201,0.09576271186440678
bioinformatics,2491,941,51,0.37775993576876754,0.05419766206163656
brain,2477,765,98,0.3088413403310456,0.12810457516339868
trauma,2449,1091,77,0.4454879542670478,0.07057745187901009
type 2 diabetes mellitus,2448,1013,129,0.41380718954248363,0.12734452122408688
liver,2424,975,96,0.40222772277227725,0.09846153846153846
animalia,2407,2,0,0.0008309098462816784,0.0
p53,2404,1008,72,0.4193011647254576,0.07142857142857142
outcome,2401,1053,115,0.4385672636401499,0.10921177587844255
microglia,2397,767,68,0.31998331247392575,0.08865710560625815
ultrasound,2391,1173,103,0.4905897114178168,0.08780903665814152
mirna,2378,1114,67,0.46846089150546677,0.06014362657091562
differentiation,2373,883,42,0.3721028234302571,0.04756511891279728
incidence,2350,962,153,0.4093617021276596,0.15904365904365905
memory,2345,551,54,0.23496801705756928,0.09800362976406533
nitric oxide,2341,756,65,0.3229389149935925,0.08597883597883597
intervention,2337,1083,99,0.4634146341463415,0.09141274238227147
health,2317,1046,85,0.4514458351316357,0.08126195028680688
africa,2314,731,62,0.31590319792566984,0.08481532147742818
ethiopia,2308,1117,48,0.48396880415944543,0.04297224709042077
computed tomography,2305,1058,113,0.45900216919739695,0.10680529300567108
knowledge,2300,1247,91,0.5421739130434783,0.07297514033680834
women,2297,897,70,0.39050936003482806,0.07803790412486064
microarray,2271,501,34,0.22060766182298547,0.06786427145708583
phylogeny,2254,636,25,0.2821650399290151,0.03930817610062893
macrophages,2237,729,76,0.3258828788556102,0.10425240054869685
neuroinflammation,2236,850,69,0.38014311270125223,0.0811764705882353
antimicrobial resistance,2228,881,82,0.39542190305206465,0.09307604994324631
internet,2222,1566,277,0.7047704770477048,0.1768837803320562
alcohol,2222,887,106,0.3991899189918992,0.11950394588500564
laparoscopy,2219,869,64,0.39161784587652093,0.07364787111622555
glioblastoma,2218,1208,163,0.5446348061316502,0.13493377483443708
antibiotic resistance,2217,786,80,0.35453315290933696,0.10178117048346055
mesenchymal stem cells,2180,1036,62,0.47522935779816516,0.059845559845559844
mutation,2179,878,70,0.40293712712253327,0.07972665148063782
therapy,2151,812,121,0.3774988377498838,0.14901477832512317
nf κb,2141,941,31,0.43951424567958897,0.03294367693942614
complications,2128,1037,124,0.487312030075188,0.11957569913211186
clinical trial,2106,852,226,0.4045584045584046,0.2652582159624413
transcriptomics,2085,973,58,0.4666666666666667,0.05960945529290853
escherichia coli,2083,625,36,0.300048007681229,0.0576
staphylococcus aureus,2074,681,58,0.328351012536162,0.08516886930983847
vaccination,2072,676,113,0.32625482625482627,0.16715976331360946
antibiotics,2054,899,100,0.437682570593963,0.11123470522803114
microbiota,2054,852,90,0.4148003894839338,0.1056338028169014
imaging,2052,833,131,0.40594541910331383,0.15726290516206481
calcium,2051,632,45,0.3081423695758167,0.07120253164556962
drug delivery,2047,1111,60,0.5427454811919883,0.054005400540054004
biofilm,2046,771,72,0.37683284457478006,0.0933852140077821
echocardiography,2027,703,61,0.3468179575727676,0.08677098150782361
zebrafish,2023,1013,34,0.5007414730598122,0.03356367226061204
insulin,2004,708,117,0.3532934131736527,0.1652542372881356
immunity,2000,777,72,0.3885,0.09266409266409266
recurrence,1995,1052,109,0.5273182957393484,0.10361216730038023
clinical trials,1982,885,217,0.446518668012109,0.24519774011299436
macrophage,1971,619,50,0.31405377980720445,0.08077544426494346
toxicity,1971,789,78,0.4003044140030441,0.09885931558935361
medical education,1962,943,90,0.48063200815494395,0.09544008483563096
primary health care,1960,868,88,0.44285714285714284,0.10138248847926268
acute kidney injury,1959,1032,103,0.5267993874425727,0.0998062015503876
chronic obstructive pulmonary disease,1959,889,152,0.45380296069423176,0.17097862767154107
fibrosis,1943,744,94,0.3829130211013896,0.12634408602150538
adaptation,1936,499,36,0.2577479338842975,0.07214428857715431
sleep,1929,775,71,0.40176257128045617,0.09161290322580645
immune response,1921,876,68,0.4560124934929724,0.0776255707762557
attention,1919,411,45,0.21417404898384576,0.10948905109489052
cost effectiveness,1912,711,190,0.37186192468619245,0.2672292545710267
validation,1910,816,92,0.4272251308900524,0.11274509803921569
dopamine,1909,454,48,0.23782084861183866,0.10572687224669604
pneumonia,1905,707,103,0.3711286089238845,0.1456859971711457
older adults,1892,1055,96,0.5576109936575053,0.0909952606635071
reliability,1873,760,68,0.40576615056059795,0.08947368421052632
autism,1870,556,70,0.29732620320855613,0.12589928057553956
pediatrics,1857,805,97,0.4334948842218632,0.12049689440993788
adherence,1857,811,141,0.436725901992461,0.17385943279901356
glioma,1848,934,87,0.5054112554112554,0.09314775160599571
colon cancer,1833,895,65,0.48827059465357336,0.07262569832402235
inflammatory bowel disease,1825,863,144,0.4728767123287671,0.16685979142526072
single nucleotide polymorphism,1825,718,37,0.3934246575342466,0.05153203342618384
morphology,1807,569,20,0.3148865522966242,0.0351493848857645
autoimmunity,1805,534,66,0.29584487534626036,0.12359550561797752
classification,1802,701,60,0.3890122086570477,0.08559201141226819
eeg,1797,293,23,0.16304952698942682,0.07849829351535836
gut microbiota,1784,810,62,0.45403587443946186,0.07654320987654321
behavior,1779,585,51,0.3288364249578415,0.08717948717948718
drosophila,1768,636,8,0.3597285067873303,0.012578616352201259
antioxidants,1764,839,44,0.4756235827664399,0.052443384982121574
neuroprotection,1760,604,56,0.3431818181818182,0.09271523178807947
coronavirus,1753,682,100,0.3890473474044495,0.1466275659824047
tumor microenvironment,1750,928,85,0.5302857142857142,0.09159482758620689
transcription,1740,649,26,0.37298850574712644,0.040061633281972264
implementation,1732,859,108,0.4959584295612009,0.12572759022118743
health related quality of life,1728,876,192,0.5069444444444444,0.2191780821917808
adolescence,1720,570,53,0.3313953488372093,0.09298245614035087
risk factor,1719,771,56,0.44851657940663175,0.07263294422827497
dendritic cells,1712,445,45,0.25992990654205606,0.10112359550561797
pediatric,1700,794,96,0.46705882352941175,0.12090680100755667
efficacy,1699,729,146,0.4290759270158917,0.20027434842249658
bladder cancer,1687,816,60,0.4836988737403675,0.07352941176470588
skeletal muscle,1687,636,49,0.3770005927682276,0.0770440251572327
validity,1683,717,64,0.42602495543672014,0.08926080892608089
signal transduction,1680,438,25,0.26071428571428573,0.05707762557077625
pathogenesis,1674,581,43,0.34707287933094383,0.07401032702237521
extracellular matrix,1670,632,45,0.3784431137724551,0.07120253164556962
ros,1669,782,32,0.46854403834631514,0.04092071611253197
prediction,1666,617,67,0.37034813925570226,0.1085899513776337
cytokine,1663,498,50,0.2994588093806374,0.10040160642570281
training,1661,645,49,0.3883202889825406,0.07596899224806201
survey,1658,811,100,0.48914354644149577,0.12330456226880394
multiple myeloma,1658,837,127,0.5048250904704463,0.15173237753882915
cholesterol,1657,605,63,0.3651176825588413,0.10413223140495868
virulence,1652,391,16,0.23668280871670702,0.04092071611253197
cardiovascular diseases,1652,800,77,0.48426150121065376,0.09625
oncology,1649,847,128,0.5136446331109763,0.1511216056670602
dna damage,1642,685,41,0.4171741778319123,0.059854014598540145
mhealth,1642,1347,239,0.820341047503045,0.17743132887899035
cisplatin,1637,715,61,0.4367745876603543,0.08531468531468532
risk assessment,1629,669,96,0.4106813996316759,0.14349775784753363
management,1628,708,80,0.4348894348894349,0.11299435028248588
overweight,1626,762,76,0.46863468634686345,0.09973753280839895
methylation,1624,683,58,0.4205665024630542,0.0849194729136164
kidney,1620,611,56,0.3771604938271605,0.09165302782324058
outcomes,1615,766,126,0.4743034055727554,0.16449086161879894
ageing,1604,776,88,0.4837905236907731,0.1134020618556701
age,1597,628,52,0.39323731997495304,0.08280254777070063
neuroscience,1596,806,81,0.5050125313283208,0.10049627791563276
new species,1592,70,7,0.04396984924623116,0.1
pcr,1592,409,39,0.25690954773869346,0.09535452322738386
antioxidant activity,1589,916,29,0.5764631843926998,0.03165938864628821
growth,1588,592,48,0.37279596977329976,0.08108108108108109
t cells,1587,464,68,0.2923755513547574,0.14655172413793102
plasmodium falciparum,1584,340,18,0.21464646464646464,0.052941176470588235
genetic diversity,1582,480,25,0.3034134007585335,0.052083333333333336
ultrasonography,1574,814,64,0.5171537484116899,0.07862407862407862
quality improvement,1574,864,104,0.5489199491740788,0.12037037037037036
immunology,1574,758,115,0.4815756035578145,0.1517150395778364
egfr,1571,726,99,0.4621260343730108,0.13636363636363635
arabidopsis,1569,320,7,0.20395156150414276,0.021875
traumatic brain injury,1563,657,78,0.42034548944337813,0.1187214611872146
risk,1558,620,81,0.3979460847240051,0.13064516129032258
palliative care,1554,893,67,0.5746460746460746,0.07502799552071669
temperature,1553,587,25,0.37797810688989053,0.04258943781942078
targeted therapy,1549,748,102,0.4828921885087153,0.13636363636363635
cell proliferation,1546,690,39,0.4463130659767141,0.05652173913043478
akt,1545,678,38,0.4388349514563107,0.05604719764011799
exosomes,1544,772,52,0.5,0.06735751295336788
ischemic stroke,1542,597,49,0.38715953307393,0.08207705192629816
evaluation,1541,647,80,0.4198572355613238,0.12364760432766615
mice,1540,516,44,0.33506493506493507,0.08527131782945736
metagenomics,1539,615,71,0.3996101364522417,0.11544715447154472
renal cell carcinoma,1537,706,89,0.45933636955107354,0.12606232294617564
simulation,1534,661,59,0.43089960886571055,0.08925869894099848
cancer stem cells,1532,853,50,0.5567885117493473,0.05861664712778429
gene therapy,1531,517,74,0.33768778576094055,0.14313346228239845
south africa,1520,538,41,0.3539473684210526,0.0762081784386617
nigeria,1517,556,27,0.36651285431773234,0.048561151079136694
glaucoma,1516,633,98,0.4175461741424802,0.15481832543443919
health policy,1507,934,157,0.6197743861977438,0.16809421841541755
rice,1507,474,19,0.31453218314532183,0.04008438818565401
mycobacterium tuberculosis,1498,416,32,0.27770360480640854,0.07692307692307693
biodiversity,1493,593,28,0.3971868720696584,0.047217537942664416
deep learning,1489,982,65,0.6595030221625252,0.06619144602851323
hemodialysis,1486,683,101,0.45962314939434723,0.1478770131771596
wound healing,1485,723,52,0.4868686868686869,0.07192254495159059
patient safety,1485,753,97,0.5070707070707071,0.12881806108897742
zoonoses,1483,137,10,0.09238031018206339,0.072992700729927
telemedicine,1476,1029,185,0.6971544715447154,0.17978620019436345
iron,1475,522,45,0.3538983050847458,0.08620689655172414
emotion,1466,236,17,0.16098226466575716,0.07203389830508475
epithelial mesenchymal transition,1465,756,37,0.5160409556313993,0.04894179894179894
sub saharan africa,1463,577,48,0.3943950786056049,0.0831889081455806
air pollution,1459,609,97,0.4174091843728581,0.1592775041050903
systems biology,1454,420,45,0.28885832187070154,0.10714285714285714
health promotion,1452,766,85,0.5275482093663911,0.11096605744125326
mechanical properties,1442,1211,9,0.8398058252427184,0.007431874483897605
assessment,1439,567,67,0.3940236275191105,0.11816578483245149
phosphorylation,1438,451,27,0.3136300417246175,0.0598669623059867
learning,1438,398,29,0.2767732962447844,0.0728643216080402
hiv 1,1437,338,32,0.23521224773834376,0.09467455621301775
senescence,1437,649,45,0.4516353514265832,0.06933744221879815
qualitative,1436,703,80,0.4895543175487465,0.11379800853485064
ethics,1431,543,70,0.37945492662473795,0.1289134438305709
probiotics,1428,582,85,0.40756302521008403,0.14604810996563575
blood brain barrier,1413,516,31,0.3651804670912951,0.060077519379844964
hydrogen bonding,1406,82,0,0.05832147937411095,0.0
fungi,1402,352,22,0.25106990014265335,0.0625
helicobacter pylori,1401,588,29,0.4197002141327623,0.04931972789115646
mtor,1401,607,50,0.43326195574589577,0.08237232289950576
infant,1401,579,65,0.4132762312633833,0.11226252158894647
micrornas,1401,591,20,0.42184154175588867,0.0338409475465313
comorbidity,1400,588,92,0.42,0.1564625850340136
nursing,1400,617,86,0.4407142857142857,0.1393841166936791
virus,1394,516,23,0.3701578192252511,0.044573643410852716
emt,1392,850,22,0.610632183908046,0.02588235294117647
pseudomonas aeruginosa,1383,408,34,0.2950108459869848,0.08333333333333333
animal model,1383,422,51,0.3051337671728127,0.12085308056872038
head and neck cancer,1379,667,66,0.48368382886149386,0.09895052473763119
sars cov 2,1365,715,88,0.5238095238095238,0.12307692307692308
comparative genomics,1364,418,27,0.3064516129032258,0.0645933014354067
perception,1363,581,37,0.42626559060895086,0.06368330464716007
hiv aids,1360,499,37,0.3669117647058823,0.07414829659318638
crohn s disease,1359,573,94,0.4216335540838852,0.16404886561954624
lymphoma,1359,605,83,0.4451802796173657,0.1371900826446281
type 1 diabetes,1356,578,140,0.42625368731563423,0.2422145328719723
metformin,1355,640,84,0.47232472324723246,0.13125
social media,1354,986,104,0.7282127031019202,0.10547667342799188
environment,1352,421,37,0.3113905325443787,0.08788598574821853
infertility,1351,611,39,0.45225758697261287,0.06382978723404255
transmission,1349,357,15,0.26464047442550037,0.04201680672268908
genome,1349,414,27,0.30689399555226093,0.06521739130434782
fatigue,1346,605,63,0.44947994056463597,0.10413223140495868
working memory,1345,236,26,0.1754646840148699,0.11016949152542373
pathology,1345,580,55,0.4312267657992565,0.09482758620689655
osteosarcoma,1340,655,50,0.48880597014925375,0.07633587786259542
neuroimaging,1340,347,33,0.258955223880597,0.09510086455331412
bone,1338,603,53,0.45067264573991034,0.087893864013267
regeneration,1338,567,28,0.42376681614349776,0.04938271604938271
electrophysiology,1337,350,29,0.2617801047120419,0.08285714285714285
chitosan,1336,772,23,0.5778443113772455,0.029792746113989636
retina,1334,555,90,0.4160419790104948,0.16216216216216217
whole genome sequencing,1332,474,45,0.35585585585585583,0.0949367088607595
immunosuppression,1332,507,52,0.38063063063063063,0.10256410256410256
snp,1331,403,18,0.30277986476333585,0.04466501240694789
gene regulation,1326,521,21,0.3929110105580694,0.04030710172744722
flow cytometry,1326,419,37,0.31598793363499245,0.0883054892601432
ulcerative colitis,1324,599,97,0.452416918429003,0.16193656093489148
cell death,1316,542,43,0.41185410334346506,0.07933579335793357
performance,1308,522,41,0.39908256880733944,0.07854406130268199
dog,1304,446,92,0.34202453987730064,0.2062780269058296
transcription factor,1303,422,16,0.32386799693016116,0.037914691943127965
migraine,1303,473,109,0.363008442056792,0.23044397463002114
rats,1300,531,24,0.4084615384615385,0.04519774011299435
squamous cell carcinoma,1300,514,60,0.3953846153846154,0.11673151750972763
transplantation,1297,460,50,0.3546646106399383,0.10869565217391304
glucose,1296,510,54,0.39351851851851855,0.10588235294117647
fish,1294,371,28,0.2867078825347759,0.07547169811320754
spinal cord injury,1290,527,43,0.40852713178294575,0.08159392789373814
autism spectrum disorder,1287,539,79,0.4188034188034188,0.14656771799628943
positron emission tomography,1282,525,87,0.4095163806552262,0.1657142857142857
percutaneous coronary intervention,1279,453,44,0.35418295543393274,0.09713024282560706
infectious diseases,1272,576,51,0.4528301886792453,0.08854166666666667
overall survival,1271,781,90,0.6144767899291896,0.11523687580025609
extracellular vesicles,1268,605,42,0.47712933753943215,0.06942148760330578
psoriasis,1266,607,120,0.4794628751974723,0.19769357495881384
dna repair,1265,529,31,0.41818181818181815,0.05860113421550094
guidelines,1264,529,110,0.4185126582278481,0.20793950850661624
anemia,1263,601,67,0.4758511480601742,0.11148086522462562
other,1261,1244,17,0.9865186360031721,0.013665594855305467
arabidopsis thaliana,1257,223,8,0.17740652346857597,0.03587443946188341
vaccines,1256,468,88,0.37261146496815284,0.18803418803418803
functional connectivity,1255,201,19,0.1601593625498008,0.0945273631840796
lipids,1250,513,44,0.4104,0.08576998050682261
bipolar disorder,1249,404,66,0.32345876701361087,0.16336633663366337
flavonoids,1248,625,28,0.500801282051282,0.0448
lung,1244,391,39,0.31430868167202575,0.09974424552429667
systemic lupus erythematosus,1241,515,54,0.41498791297340853,0.10485436893203884
disability,1236,581,70,0.47006472491909385,0.12048192771084337
diversity,1229,376,17,0.305939788445891,0.04521276595744681
body composition,1227,604,55,0.49225753871230643,0.09105960264900662
adult,1227,541,73,0.4409127954360228,0.13493530499075784
stability,1227,539,28,0.4392828035859821,0.05194805194805195
photosynthesis,1223,319,13,0.2608340147179068,0.04075235109717868
randomised controlled trial,1222,583,95,0.47708674304418985,0.16295025728987994
motivation,1222,433,29,0.35433715220949263,0.06697459584295612
plasticity,1218,244,13,0.20032840722495895,0.05327868852459016
hepatitis c virus,1216,481,61,0.39555921052631576,0.12681912681912683
lung neoplasms,1214,150,47,0.12355848434925865,0.31333333333333335
social support,1214,578,44,0.47611202635914335,0.07612456747404844
molecular docking,1214,625,14,0.514827018121911,0.0224
addiction,1213,342,49,0.28194558944765047,0.14327485380116958
rna sequencing,1212,635,42,0.5239273927392739,0.06614173228346457
e coli,1211,691,27,0.5706028075970272,0.03907380607814761
nsclc,1209,697,88,0.576509511993383,0.12625538020086083
genotype,1208,418,28,0.34602649006622516,0.06698564593301436
tobacco,1206,521,82,0.4320066334991708,0.15738963531669867
outbreak,1205,392,18,0.3253112033195021,0.04591836734693878
yeast,1204,359,12,0.29817275747508304,0.033426183844011144
microbiology,1202,609,36,0.5066555740432612,0.059113300492610835
questionnaire,1201,529,44,0.440466278101582,0.0831758034026465
emergency department,1198,638,65,0.5325542570951586,0.10188087774294671
ehealth,1196,981,142,0.8202341137123745,0.14475025484199797
cystic fibrosis,1196,435,49,0.3637123745819398,0.11264367816091954
fluorescence,1195,470,28,0.39330543933054396,0.059574468085106386
chromatin,1195,422,22,0.35313807531380753,0.052132701421800945
weight loss,1193,597,104,0.5004191114836547,0.17420435510887772
leukemia,1190,505,54,0.42436974789915966,0.10693069306930693
suicide,1190,571,38,0.47983193277310926,0.06654991243432574
molecular dynamics,1189,587,19,0.49369217830109335,0.03236797274275979
skin,1187,540,66,0.45492839090143217,0.12222222222222222
polyphenols,1183,743,46,0.6280642434488588,0.06191117092866756
adults,1183,569,50,0.4809805579036348,0.08787346221441125
optical coherence tomography,1181,462,59,0.3911939034716342,0.1277056277056277
human papillomavirus,1180,434,55,0.3677966101694915,0.12672811059907835
mild cognitive impairment,1178,389,67,0.3302207130730051,0.17223650385604114
signaling,1174,332,21,0.282793867120954,0.06325301204819277
wheat,1174,381,19,0.32453151618398635,0.049868766404199474
phylogenetic analysis,1170,376,17,0.3213675213675214,0.04521276595744681
lifestyle,1169,500,48,0.42771599657827203,0.096
graphene,1167,742,8,0.6358183376178235,0.01078167115902965
self management,1165,673,92,0.5776824034334764,0.13670133729569092
allergy,1165,429,61,0.3682403433476395,0.14219114219114218
drug discovery,1165,575,70,0.49356223175965663,0.12173913043478261
radiation,1162,495,68,0.4259896729776248,0.13737373737373737
critical care,1158,576,77,0.49740932642487046,0.13368055555555555
antimicrobial,1158,529,29,0.45682210708117443,0.054820415879017016
testosterone,1154,369,40,0.3197573656845754,0.10840108401084012
synthesis,1152,506,9,0.4392361111111111,0.017786561264822136
lncrna,1150,756,19,0.6573913043478261,0.02513227513227513
chronic disease,1148,560,58,0.4878048780487805,0.10357142857142858
acute myeloid leukemia,1146,592,66,0.5165794066317626,0.11148648648648649
neurogenesis,1145,318,9,0.2777292576419214,0.02830188679245283
endothelial cells,1144,424,25,0.3706293706293706,0.0589622641509434
monitoring,1142,473,54,0.4141856392294221,0.11416490486257928
tumor,1142,473,51,0.4141856392294221,0.10782241014799154
antimicrobial activity,1140,538,17,0.47192982456140353,0.031598513011152414
sensitivity,1139,447,31,0.3924495171202809,0.06935123042505593
c reactive protein,1138,454,31,0.3989455184534271,0.06828193832599119
amyotrophic lateral sclerosis,1136,424,63,0.3732394366197183,0.14858490566037735
melatonin,1135,515,18,0.45374449339207046,0.03495145631067961
thrombosis,1134,434,42,0.38271604938271603,0.0967741935483871
transcription factors,1134,388,18,0.3421516754850088,0.04639175257731959
hepatitis b virus,1133,504,29,0.44483671668137686,0.057539682539682536
nasopharyngeal carcinoma,1129,596,48,0.5279007971656333,0.08053691275167785
policy,1129,465,55,0.41186891054030117,0.11827956989247312
antiretroviral therapy,1129,370,51,0.32772364924712133,0.13783783783783785
curcumin,1128,575,34,0.5097517730496454,0.059130434782608696
physiology,1127,518,34,0.45962732919254656,0.06563706563706563
intensive care unit,1127,557,69,0.49423247559893524,0.12387791741472172
cognitive impairment,1126,473,44,0.4200710479573712,0.09302325581395349
attitude,1126,645,41,0.5728241563055062,0.06356589147286822
cattle,1126,332,23,0.29484902309058614,0.06927710843373494
acute coronary syndrome,1125,479,56,0.42577777777777776,0.11691022964509394
aged,1123,597,68,0.5316117542297417,0.11390284757118928
sarcopenia,1122,618,73,0.5508021390374331,0.11812297734627832
brazil,1120,340,40,0.30357142857142855,0.11764705882352941
breast neoplasms,1117,799,121,0.7153088630259624,0.15143929912390489
collagen,1117,447,34,0.40017905102954343,0.07606263982102908
cancer therapy,1115,643,69,0.5766816143497758,0.10730948678071539
hepatitis c,1115,472,84,0.4233183856502242,0.17796610169491525
vegf,1115,409,30,0.3668161434977579,0.07334963325183375
biomechanics,1110,484,67,0.436036036036036,0.1384297520661157
crispr cas9,1110,538,42,0.4846846846846847,0.07806691449814127
lipopolysaccharide,1110,352,23,0.3171171171171171,0.06534090909090909
elisa,1105,385,35,0.34841628959276016,0.09090909090909091
self assembly,1102,555,9,0.5036297640653358,0.016216216216216217
psychosis,1102,346,53,0.3139745916515426,0.1531791907514451
endoscopy,1101,613,57,0.5567665758401453,0.0929853181076672
therapeutics,1101,541,82,0.4913714804722979,0.15157116451016636
leptin,1096,409,35,0.3731751824817518,0.08557457212713937
malnutrition,1096,583,57,0.531934306569343,0.09777015437392796
gwas,1094,378,35,0.34552102376599636,0.09259259259259259
antibody,1094,324,53,0.2961608775137112,0.16358024691358025
fatty acids,1093,516,36,0.47209515096065874,0.06976744186046512
infectious disease,1093,278,35,0.25434583714547115,0.12589928057553956
serotonin,1093,247,30,0.22598353156450138,0.1214574898785425
resilience,1092,390,29,0.35714285714285715,0.07435897435897436
anti inflammatory,1087,521,30,0.47930082796688134,0.05758157389635317
antibodies,1085,348,53,0.3207373271889401,0.15229885057471265
molecular biology,1084,679,46,0.6263837638376384,0.06774668630338733
multidrug resistance,1081,387,34,0.3580018501387604,0.08785529715762273
global health,1081,500,61,0.46253469010175763,0.122
chronic pain,1080,532,95,0.4925925925925926,0.17857142857142858
salmonella,1079,320,28,0.2965708989805375,0.0875
smoking cessation,1075,528,134,0.49116279069767443,0.2537878787878788
stat3,1074,602,30,0.5605214152700186,0.04983388704318937
fracture,1074,521,58,0.4851024208566108,0.11132437619961612
alternative splicing,1073,421,13,0.3923578751164958,0.030878859857482184
cerebellum,1073,312,22,0.2907735321528425,0.07051282051282051
saccharomyces cerevisiae,1070,283,12,0.2644859813084112,0.04240282685512368
dna,1070,410,20,0.38317757009345793,0.04878048780487805
pig,1069,443,18,0.41440598690364827,0.040632054176072234
complication,1068,513,43,0.4803370786516854,0.08382066276803118
modeling,1066,319,29,0.29924953095684803,0.09090909090909091
zinc,1065,418,29,0.39248826291079814,0.06937799043062201
australia,1064,370,44,0.34774436090225563,0.11891891891891893
sex,1062,395,36,0.371939736346516,0.09113924050632911
socioeconomic status,1061,469,33,0.4420358152686145,0.07036247334754797
antibacterial activity,1060,560,13,0.5283018867924528,0.023214285714285715
astrocytes,1059,294,17,0.2776203966005666,0.05782312925170068
uganda,1059,368,24,0.34749763928234184,0.06521739130434782
cell biology,1053,692,30,0.6571699905033238,0.04335260115606936
medical students,1053,543,32,0.5156695156695157,0.058931860036832415
conservation,1051,305,18,0.29019980970504283,0.05901639344262295
chemoresistance,1050,607,38,0.5780952380952381,0.06260296540362438
bangladesh,1046,350,24,0.33460803059273425,0.06857142857142857
quality of care,1044,484,46,0.46360153256704983,0.09504132231404959
personalized medicine,1044,454,100,0.43486590038314177,0.22026431718061673
animal models,1043,340,30,0.3259827420901246,0.08823529411764706
population genetics,1043,381,27,0.3652924256951103,0.07086614173228346
regulation,1042,313,41,0.30038387715930903,0.13099041533546327
neutrophils,1040,337,30,0.32403846153846155,0.08902077151335312
knee,1039,590,98,0.5678537054860443,0.16610169491525423
cortisol,1039,332,28,0.31953801732435033,0.08433734939759036
breastfeeding,1038,556,49,0.535645472061657,0.08812949640287769
ecology,1037,539,20,0.5197685631629702,0.03710575139146568
ghana,1036,450,18,0.4343629343629344,0.04
pet,1035,426,76,0.4115942028985507,0.1784037558685446
adhesion,1034,369,12,0.3568665377176016,0.032520325203252036
precision medicine,1034,506,107,0.48936170212765956,0.21146245059288538
frailty,1029,586,68,0.5694849368318756,0.11604095563139932
europe,1026,334,38,0.3255360623781676,0.11377245508982035
cell migration,1024,508,17,0.49609375,0.03346456692913386
dengue,1024,359,26,0.3505859375,0.07242339832869081
histopathology,1022,391,37,0.38258317025440314,0.09462915601023018
ischemia,1022,319,23,0.312133072407045,0.07210031347962383
kidney transplantation,1022,475,37,0.46477495107632094,0.07789473684210527
cytoskeleton,1019,323,17,0.3169774288518155,0.05263157894736842
bmi,1018,430,50,0.4223968565815324,0.11627906976744186
human immunodeficiency virus,1015,392,35,0.38620689655172413,0.08928571428571429
tanzania,1011,355,19,0.35113748763600394,0.05352112676056338
cerebrospinal fluid,1010,374,48,0.3702970297029703,0.12834224598930483
heart rate variability,1010,315,27,0.3118811881188119,0.08571428571428572
saudi arabia,1009,506,36,0.5014866204162537,0.07114624505928854
microfluidics,1007,629,41,0.6246276067527309,0.06518282988871224
protein,1003,419,47,0.41774675972083747,0.11217183770883055
hospitalization,1000,438,69,0.438,0.15753424657534246
congenital heart disease,994,382,20,0.3843058350100604,0.05235602094240838
heart,983,338,32,0.34384537131230924,0.09467455621301775
